<svg width="64" height="61" viewBox="0 0 64 61" fill="none" xmlns="http://www.w3.org/2000/svg">
<path d="M58.2808 33.9972C57.4108 33.7672 56.0208 33.3972 54.7208 33.0772C54.4839 33.0234 54.2356 33.0577 54.0221 33.1736C53.8086 33.2895 53.6447 33.4792 53.5608 33.7072C52.5608 36.5172 51.1108 39.7072 49.2508 41.5172C48.8718 40.4537 48.354 39.445 47.7108 38.5172C48.4603 37.5269 48.9393 36.3586 49.1008 35.1272C49.1008 33.7372 48.4408 32.6172 46.1008 32.6172C43.7608 32.6172 43.1008 33.7372 43.1008 35.1272C43.2621 36.3604 43.7449 37.5295 44.5008 38.5172C43.8674 39.4119 43.3562 40.3872 42.9808 41.4172C41.0808 39.5472 39.6008 36.2672 38.6008 33.4172C38.5321 33.2271 38.4075 33.0623 38.2432 32.9444C38.079 32.8266 37.8829 32.7613 37.6808 32.7572H37.5108C34.1408 33.3272 31.6908 34.2472 29.4308 37.0072C29.1208 37.3772 22.4808 47.1372 22.4808 47.1372L20.0108 43.6172C19.9233 43.4898 19.8108 43.3816 19.6801 43.2991C19.5495 43.2166 19.4034 43.1615 19.2508 43.1372L12.8508 42.1372H12.6808C12.4953 42.1344 12.3121 42.179 12.1486 42.2667C11.9851 42.3545 11.8467 42.4826 11.7466 42.6388C11.6464 42.7951 11.5878 42.9743 11.5763 43.1595C11.5648 43.3447 11.6008 43.5298 11.6808 43.6972L18.3808 57.9972C18.7099 58.6899 19.2088 59.2881 19.831 59.7364C20.4533 60.1846 21.1787 60.4683 21.94 60.5611C22.7012 60.6539 23.4736 60.5527 24.1853 60.2671C24.897 59.9814 25.525 59.5205 26.0108 58.9272L31.7208 51.0572V57.8772C31.7195 58.2352 31.7889 58.59 31.925 58.9212C32.0611 59.2523 32.2612 59.5533 32.5139 59.807C32.7667 60.0606 33.0669 60.2619 33.3976 60.3992C33.7283 60.5365 34.0828 60.6072 34.4408 60.6072H61.1908C61.9149 60.6072 62.6092 60.3196 63.1212 59.8076C63.6332 59.2956 63.9208 58.6012 63.9208 57.8772V42.8772C63.9008 37.9972 61.5908 34.9172 58.2808 33.9972ZM60.4208 56.9972H35.2208V50.9972C35.221 50.2576 34.9869 49.537 34.5521 48.9388C34.1174 48.3405 33.5043 47.8954 32.8008 47.6672C32.4524 47.5523 32.0877 47.4949 31.7208 47.4972C31.1658 47.5071 30.621 47.6482 30.1309 47.9089C29.6408 48.1696 29.2193 48.5425 28.9008 48.9972L23.2708 56.7672C23.1751 56.8733 23.0577 56.9577 22.9266 57.0146C22.7955 57.0715 22.6537 57.0997 22.5108 57.0972C22.3035 57.1151 22.0957 57.0679 21.9164 56.9622C21.7372 56.8564 21.5954 56.6974 21.5108 56.5072L16.7508 46.4172L17.6608 46.5672L19.5608 49.2672C19.8813 49.7285 20.309 50.1051 20.8072 50.3646C21.3054 50.6241 21.8591 50.7589 22.4208 50.7572C22.9871 50.7526 23.544 50.6111 24.0437 50.3447C24.5435 50.0782 24.9714 49.6948 25.2908 49.2272C27.6608 45.7372 31.5508 40.0372 32.0908 39.2972C33.0707 38.0581 34.4362 37.1818 35.9708 36.8072C36.9529 39.4933 38.4587 41.9576 40.4008 44.0572C41.0558 44.7035 41.9407 45.0632 42.8608 45.0572C43.1059 45.0587 43.3505 45.0352 43.5908 44.9872C44.1055 44.8755 44.5885 44.6495 45.004 44.3257C45.4194 44.002 45.7567 43.589 45.9908 43.1172C46.2212 43.5976 46.558 44.0192 46.9755 44.3502C47.3931 44.6811 47.8805 44.9126 48.4008 45.0272C48.6498 45.0866 48.9048 45.1169 49.1608 45.1172C50.0732 45.1137 50.9484 44.755 51.6008 44.1172C53.4895 42.0888 54.9638 39.7109 55.9408 37.1172L57.2708 37.4672C59.2108 37.9972 60.3308 39.9772 60.3308 42.9072L60.4208 56.9972Z" fill="#5A7284"/>
<path d="M21.7605 28.2074C21.5205 27.5674 17.0505 16.4274 16.9305 16.1274C16.6965 15.5215 16.2848 15.0006 15.7494 14.6329C15.214 14.2653 14.58 14.0681 13.9305 14.0674C13.4212 14.0688 12.9187 14.1851 12.4605 14.4074L0.740494 20.6574C0.443401 20.799 0.211106 21.0481 0.0904694 21.3543C-0.0301668 21.6606 -0.0301562 22.0012 0.0904999 22.3074L6.2505 37.9074C6.33559 38.1146 6.47203 38.2968 6.64698 38.4368C6.82193 38.5767 7.02962 38.6699 7.2505 38.7074C7.2505 38.7074 17.2505 40.2574 17.4905 40.2574C19.3705 40.2574 20.4105 38.8474 19.6705 36.9174C19.5305 36.5474 15.2005 25.7674 14.9005 25.0274C14.6311 24.2301 14.1417 23.5254 13.4887 22.9945C12.8358 22.4637 12.0459 22.1284 11.2105 22.0274L5.3805 21.1574C8.9905 19.2274 13.0705 17.0474 13.6005 16.7874C13.707 16.7372 13.8228 16.7099 13.9405 16.7074C14.0665 16.7072 14.1894 16.7467 14.2917 16.8203C14.394 16.8939 14.4706 16.9978 14.5105 17.1174C14.6405 17.4274 20.5105 32.0274 20.5105 32.0274C21.1702 31.6736 21.6682 31.0793 21.901 30.3679C22.1337 29.6564 22.0834 28.8827 21.7605 28.2074ZM10.6505 25.4474C11.1105 25.5174 11.3205 25.5574 11.6505 26.3574L15.7205 36.4674L9.0405 35.4674L4.7305 24.5774H4.8605L10.6505 25.4474Z" fill="#5A7284"/>
<path d="M56.5908 15.5972C56.5458 15.3924 56.4376 15.2069 56.2815 15.0669C56.1254 14.927 55.9292 14.8396 55.7208 14.8172L32.9008 12.3872H32.7908C32.5477 12.3876 32.3131 12.4764 32.1307 12.6372L28.7508 15.6972C28.5613 15.871 28.4282 16.0975 28.3684 16.3476C28.3086 16.5976 28.3249 16.8598 28.4151 17.1006C28.5054 17.3413 28.6656 17.5496 28.875 17.6986C29.0845 17.8477 29.3337 17.9308 29.5908 17.9372H29.7008C30.7208 17.9372 31.7208 17.8972 32.7008 17.8172C32.7055 19.4907 33.0587 21.1449 33.738 22.6744C34.4173 24.2039 35.4077 25.5751 36.6462 26.7006C37.8847 27.8262 39.344 28.6815 40.9313 29.2119C42.5185 29.7424 44.1988 29.9364 45.8652 29.7816C47.5316 29.6268 49.1474 29.1267 50.6098 28.3129C52.0722 27.4992 53.349 26.3898 54.359 25.0554C55.369 23.7209 56.0899 22.1908 56.4759 20.5623C56.8618 18.9339 56.9044 17.243 56.6007 15.5972H56.5908ZM51.3207 23.2572C50.1956 24.6044 48.6836 25.5731 46.9895 26.0322C45.2954 26.4913 43.5011 26.4185 41.8497 25.8236C40.1984 25.2288 38.7698 24.1407 37.7576 22.7068C36.7453 21.2728 36.1983 19.5624 36.1907 17.8072C36.1921 17.2546 36.0619 16.7095 35.8108 16.2172L53.2908 18.0772C53.2297 19.9752 52.5363 21.7983 51.3207 23.2572Z" fill="#5A7284"/>
<path d="M58.0808 9.43731L57.4008 11.4373C57.3342 11.6343 57.2079 11.8057 57.0394 11.9276C56.871 12.0494 56.6687 12.1158 56.4608 12.1173H56.3608L32.9508 9.63731C32.7645 9.61618 32.5878 9.54309 32.4411 9.42639C32.2943 9.30969 32.1833 9.15408 32.1208 8.97732L29.8308 2.45731C29.7553 2.23062 29.7343 1.98932 29.7696 1.753C29.8048 1.51669 29.8952 1.29201 30.0335 1.09719C30.1719 0.90237 30.3542 0.742903 30.5656 0.631727C30.7771 0.52055 31.0119 0.460796 31.2508 0.457311C31.3871 0.443266 31.5244 0.443266 31.6608 0.457311L57.0408 7.45731C57.2438 7.51144 57.4335 7.60709 57.5978 7.73823C57.762 7.86938 57.8972 8.03316 57.995 8.21923C58.0927 8.4053 58.1508 8.60962 58.1656 8.81928C58.1803 9.02894 58.1514 9.23938 58.0808 9.43731Z" fill="#5A7284"/>
</svg>
