<svg width="22" height="21" viewBox="0 0 22 21" fill="none" xmlns="http://www.w3.org/2000/svg">
<path d="M10.9425 0C8.42272 0.00526914 5.98826 0.914178 4.08085 2.56182C2.17345 4.20945 0.919484 6.48666 0.546469 8.98027H3.87646C4.48561 5.68886 7.12524 3.41331 11.0238 3.41331C15.6127 3.41331 18.4959 6.17647 17.968 11.7028H7.24707C7.45011 13.3688 8.95267 14.5472 11.3486 14.5472C12.6075 14.5472 14.2319 14.1002 15.0441 13.2875L17.1964 15.4005C15.7751 16.8634 13.3791 17.5948 11.308 17.5948C7.04402 17.5948 4.36378 15.2786 3.87646 11.7028H0.505859C0.73767 13.7143 1.54581 15.6159 2.83293 17.1784C4.12004 18.7409 5.83121 19.8977 7.7603 20.5094C9.68939 21.1211 11.7541 21.1616 13.7057 20.6261C15.6572 20.0906 17.4124 19.0018 18.7598 17.491C20.1071 15.9802 20.9892 14.1118 21.2996 12.1109C21.6101 10.11 21.3357 8.06192 20.5096 6.21346C19.6835 4.365 18.3408 2.79499 16.6434 1.69257C14.946 0.590154 12.9662 0.0023585 10.9425 0Z" fill="#F4901F"/>
<path d="M14.7187 8.9805C14.5156 7.23321 13.0943 6.37988 11.145 6.37988C9.31759 6.37988 7.81504 7.23321 7.28711 8.9805H14.7187Z" fill="#F4901F"/>
</svg>
