<svg width="78" height="77" viewBox="0 0 78 77" fill="none" xmlns="http://www.w3.org/2000/svg">
<rect width="78" height="77" fill="#5A7284"/>
<path d="M49.4771 48.9662H45.1032C44.7052 48.9662 44.3235 48.8081 44.0421 48.5267C43.7606 48.2452 43.6025 47.8635 43.6025 47.4655V24.5007C43.6025 24.1027 43.7606 23.721 44.0421 23.4395C44.3235 23.1581 44.7052 23 45.1032 23H49.4812C49.8785 23.0011 50.2591 23.1597 50.5397 23.441C50.8202 23.7223 50.9777 24.1034 50.9777 24.5007V47.4531C50.9794 47.6512 50.9418 47.8477 50.8671 48.0312C50.7924 48.2147 50.6821 48.3816 50.5426 48.5223C50.4031 48.663 50.2371 48.7746 50.0542 48.8508C49.8714 48.927 49.6752 48.9662 49.4771 48.9662ZM45.1032 24.4469C45.089 24.4469 45.0753 24.4526 45.0652 24.4627C45.0551 24.4728 45.0495 24.4864 45.0495 24.5007V47.4531C45.0495 47.4674 45.0551 47.481 45.0652 47.4911C45.0753 47.5012 45.089 47.5069 45.1032 47.5069H49.4812C49.4881 47.5069 49.4949 47.5055 49.5012 47.5027C49.5075 47.5 49.5132 47.4959 49.5178 47.4909C49.5225 47.4858 49.5261 47.4799 49.5283 47.4734C49.5305 47.4669 49.5314 47.46 49.5308 47.4531V24.5007C49.5314 24.4938 49.5305 24.4869 49.5283 24.4804C49.5261 24.4739 49.5225 24.468 49.5178 24.4629C49.5132 24.4578 49.5075 24.4538 49.5012 24.4511C49.4949 24.4483 49.4881 24.4469 49.4812 24.4469H45.1032Z" fill="white"/>
<path d="M40.1802 48.9662H35.8022C35.4049 48.9651 35.0243 48.8065 34.7437 48.5252C34.4632 48.2439 34.3057 47.8628 34.3057 47.4655V30.6315C34.3051 30.4347 34.3434 30.2396 34.4184 30.0576C34.4934 29.8755 34.6035 29.7101 34.7425 29.5707C34.8816 29.4313 35.0467 29.3206 35.2285 29.2452C35.4104 29.1697 35.6053 29.1309 35.8022 29.1309H40.1802C40.3774 29.1303 40.5728 29.1688 40.7551 29.244C40.9374 29.3192 41.1031 29.4297 41.2425 29.5692C41.382 29.7086 41.4925 29.8743 41.5678 30.0566C41.643 30.2389 41.6814 30.4343 41.6809 30.6315V47.4531C41.6825 47.6512 41.6449 47.8477 41.5702 48.0312C41.4955 48.2147 41.3853 48.3816 41.2457 48.5223C41.1062 48.663 40.9402 48.7746 40.7574 48.8508C40.5745 48.927 40.3783 48.9662 40.1802 48.9662ZM35.8022 30.5778C35.7953 30.5778 35.7885 30.5792 35.7822 30.5819C35.7759 30.5847 35.7702 30.5887 35.7656 30.5938C35.7609 30.5988 35.7574 30.6048 35.7551 30.6113C35.7529 30.6178 35.752 30.6247 35.7526 30.6315V47.4531C35.752 47.46 35.7529 47.4669 35.7551 47.4734C35.7574 47.4799 35.7609 47.4858 35.7656 47.4909C35.7702 47.496 35.7759 47.5 35.7822 47.5027C35.7885 47.5055 35.7953 47.5069 35.8022 47.5069H40.1802C40.1945 47.5069 40.2081 47.5012 40.2182 47.4911C40.2283 47.4811 40.2339 47.4674 40.2339 47.4531V30.6315C40.2346 30.6243 40.2336 30.6171 40.2311 30.6102C40.2287 30.6034 40.2247 30.5972 40.2196 30.5921C40.2145 30.587 40.2083 30.5831 40.2015 30.5806C40.1947 30.5781 40.1874 30.5772 40.1802 30.5778H35.8022Z" fill="white"/>
<path d="M30.8869 48.9664H26.5007C26.103 48.9653 25.7219 48.8069 25.4407 48.5257C25.1596 48.2445 25.0011 47.8634 25 47.4658V36.7585C25.0011 36.3608 25.1596 35.9797 25.4407 35.6985C25.7219 35.4174 26.103 35.2589 26.5007 35.2578H30.8787C31.2763 35.2589 31.6574 35.4174 31.9386 35.6985C32.2198 35.9797 32.3783 36.3608 32.3793 36.7585V47.4534C32.3815 47.8517 32.2257 48.2348 31.9459 48.5184C31.6661 48.802 31.2853 48.9631 30.8869 48.9664ZM26.5007 36.7047C26.4864 36.7047 26.4728 36.7104 26.4627 36.7205C26.4526 36.7306 26.4469 36.7442 26.4469 36.7585V47.4534C26.4469 47.4676 26.4526 47.4813 26.4627 47.4914C26.4728 47.5014 26.4864 47.5071 26.5007 47.5071H30.8787C30.8929 47.5071 30.9066 47.5014 30.9167 47.4914C30.9267 47.4813 30.9324 47.4676 30.9324 47.4534V36.7461C30.9324 36.7318 30.9267 36.7182 30.9167 36.7081C30.9066 36.698 30.8929 36.6923 30.8787 36.6923L26.5007 36.7047Z" fill="white"/>
</svg>
