<svg width="60" height="61" viewBox="0 0 60 61" fill="none" xmlns="http://www.w3.org/2000/svg">
<path d="M59.3548 19.2923L59.3582 19.3027L59.3621 19.313C59.4184 19.4634 59.4421 19.6241 59.4314 19.7844L59.4303 19.8009V19.8176V54.0276C59.4303 55.4862 58.8508 56.8852 57.8194 57.9166C56.7879 58.9481 55.389 59.5276 53.9303 59.5276H45.3703C45.0388 59.5276 44.7208 59.3959 44.4864 59.1614C44.252 58.927 44.1203 58.6091 44.1203 58.2776C44.1203 57.946 44.252 57.6281 44.4864 57.3937C44.7208 57.1593 45.0388 57.0276 45.3703 57.0276L53.9303 57.0276L53.9323 57.0276C54.7338 57.0244 55.5014 56.7038 56.0671 56.1359C56.6327 55.568 56.9503 54.7991 56.9503 53.9976V21.5676V21.0676H56.4503H4.3703H3.8703V21.5676V53.9676C3.8703 54.7712 4.18952 55.5419 4.75776 56.1101C5.326 56.6783 6.0967 56.9976 6.9003 56.9976H15.5003C15.8318 56.9976 16.1498 57.1292 16.3842 57.3637C16.6186 57.5981 16.7503 57.916 16.7503 58.2476C16.7503 58.5791 16.6186 58.897 16.3842 59.1314C16.1498 59.3659 15.8318 59.4976 15.5003 59.4976H6.9503C5.49161 59.4976 4.09266 58.9181 3.06121 57.8867C2.02976 56.8552 1.4503 55.4562 1.4503 53.9976V19.8576H1.45034L1.45027 19.8518C1.44839 19.6895 1.4815 19.5287 1.54733 19.3804L1.55779 19.3568L1.56578 19.3322C1.5667 19.3294 1.56794 19.3267 1.56949 19.3241L1.58578 19.2968L1.59849 19.2677C1.61079 19.2396 1.62527 19.2124 1.6418 19.1865L1.64309 19.1845L11.0631 4.26449L11.0685 4.25599L11.0735 4.24729C11.5406 3.43702 12.2066 2.75927 13.0086 2.27808C13.8083 1.79827 14.7168 1.5297 15.6487 1.49756H45.1743C46.1209 1.52066 47.046 1.78515 47.8618 2.26597C48.6792 2.74776 49.3598 3.43074 49.8386 4.2499L49.8432 4.25764L49.848 4.26521L59.278 19.1452L59.2788 19.1466C59.2953 19.1724 59.3098 19.1996 59.3221 19.2277L59.3348 19.2568L59.3511 19.2841C59.3518 19.2852 59.3524 19.2864 59.353 19.2876C59.3537 19.2891 59.3543 19.2906 59.3548 19.2923ZM15.6803 3.96756H15.6707L15.661 3.96793C15.1521 3.98758 14.6567 4.13686 14.2217 4.40165C13.7902 4.6643 13.4324 5.03195 13.1815 5.47021L5.3975 17.8007L4.91336 18.5676H5.8203H28.6803H29.1803V18.0676V4.46756V3.96756H28.6803H15.6803ZM31.6803 18.0676V18.5676H32.1803H55.0603H55.9677L55.483 17.8005L47.8003 5.64282V5.59309L47.7328 5.47676C47.4735 5.02953 47.1041 4.65607 46.6597 4.39194C46.2153 4.12781 45.7107 3.98178 45.1939 3.96774L45.1939 3.96756H45.1803H32.1803H31.6803V4.46756V18.0676Z" fill="#BABABA" stroke="#BABABA"/>
<path d="M32.5338 36.5137L31.6802 35.6601V36.8672V58.2972C31.6802 58.6288 31.5485 58.9467 31.3141 59.1811C31.0797 59.4155 30.7617 59.5472 30.4302 59.5472C30.0987 59.5472 29.7807 59.4155 29.5463 59.1811C29.3119 58.9467 29.1802 58.6288 29.1802 58.2972V36.8672V35.6601L28.3267 36.5137L20.6274 44.213C20.6273 44.2131 20.6272 44.2132 20.6271 44.2132C20.5108 44.329 20.3729 44.4207 20.2213 44.4831C20.0695 44.5457 19.9069 44.5777 19.7427 44.5773C19.4111 44.5767 19.0934 44.4443 18.8595 44.2094C18.6255 43.9745 18.4944 43.6563 18.4951 43.3247C18.4958 42.9932 18.6281 42.6755 18.8631 42.4415L18.8638 42.4408L29.5438 31.7608L29.5438 31.7609L29.5508 31.7537C29.6645 31.6352 29.8024 31.5425 29.955 31.4818L29.955 31.4819L29.9599 31.4799C30.2613 31.3563 30.5992 31.3563 30.9006 31.4799L30.9005 31.4799L30.9054 31.4818C31.058 31.5425 31.1959 31.6352 31.3097 31.7537L31.3096 31.7537L31.3168 31.761L42.0054 42.4395C42.0056 42.4397 42.0058 42.44 42.0061 42.4402C42.24 42.6762 42.3712 42.995 42.3712 43.3272C42.3712 43.6592 42.2402 43.9778 42.0067 44.2137C41.7708 44.4472 41.4522 44.5782 41.1202 44.5782C40.788 44.5782 40.4692 44.447 40.2332 44.2131C40.233 44.2129 40.2327 44.2126 40.2325 44.2124L32.5338 36.5137ZM42.3602 44.5672C42.0305 44.8946 41.5848 45.0782 41.1202 45.0782C40.6556 45.0782 40.2099 44.8946 39.8802 44.5672H42.3602Z" fill="#BABABA" stroke="#BABABA"/>
</svg>
