<svg width="7" height="10" viewBox="0 0 7 10" fill="none" xmlns="http://www.w3.org/2000/svg">
<path fill-rule="evenodd" clip-rule="evenodd" d="M5.75022 0.592358C5.87753 0.715501 5.87753 0.915156 5.75022 1.0383L1.65691 4.99764C1.65609 4.99843 1.65527 4.99922 1.65445 5C1.65527 5.00078 1.65609 5.00157 1.65691 5.00236L5.75022 8.9617C5.87753 9.08484 5.87753 9.2845 5.75022 9.40764C5.62291 9.53079 5.4165 9.53079 5.28919 9.40764L1.1989 5.45122C1.13664 5.39362 1.08691 5.32455 1.05267 5.24804C1.01763 5.16974 0.999549 5.08533 0.999549 5C0.999549 4.91467 1.01763 4.83026 1.05267 4.75196C1.08691 4.67545 1.13664 4.60638 1.1989 4.54878L5.28919 0.592358C5.4165 0.469214 5.62291 0.469214 5.75022 0.592358Z" fill="white" stroke="white" stroke-linecap="round" stroke-linejoin="round"/>
</svg>
