<svg width="13" height="8" viewBox="0 0 13 8" fill="none" xmlns="http://www.w3.org/2000/svg">
<path fill-rule="evenodd" clip-rule="evenodd" d="M1.11288 1.11822C1.26339 0.960594 1.50741 0.960594 1.65792 1.11822L6.49712 6.18612C6.49808 6.18714 6.49905 6.18815 6.5 6.18918C6.50096 6.18815 6.50192 6.18714 6.50288 6.18612L11.3421 1.11822C11.4926 0.960594 11.7366 0.960594 11.8871 1.11822C12.0376 1.27584 12.0376 1.53139 11.8871 1.68902L7.05149 6.75319C6.9811 6.83027 6.89667 6.89183 6.80316 6.93423C6.70746 6.97761 6.60429 7 6.5 7C6.39571 7 6.29254 6.97761 6.19684 6.93423C6.10333 6.89183 6.0189 6.83027 5.94851 6.75319L1.11288 1.68902C0.962373 1.53139 0.962373 1.27584 1.11288 1.11822Z" fill="#F4901F" stroke="#F4901F" stroke-width="0.5" stroke-linecap="round" stroke-linejoin="round"/>
</svg>
